{
    "KPlugin": {
        "Authors": [
            {
                "Email": "???",
                "Name": "???",
                "Name[ca@valencia]": "???",
                "Name[ca]": "???",
                "Name[cs]": "???",
                "Name[de]": "???",
                "Name[el]": "???",
                "Name[en_GB]": "???",
                "Name[es]": "???",
                "Name[eu]": "???",
                "Name[fi]": "???",
                "Name[fr]": "???",
                "Name[ia]": "???",
                "Name[it]": "???",
                "Name[ko]": "???",
                "Name[nl]": "???",
                "Name[pl]": "???",
                "Name[pt]": "???",
                "Name[pt_BR]": "???",
                "Name[sl]": "???",
                "Name[sv]": "???",
                "Name[uk]": "???",
                "Name[x-test]": "xx???xx",
                "Name[zh_CN]": "？？？"
            }
        ],
        "Category": "AudioEncoder",
        "Description": "Encoding module to encode <name> files",
        "Description[bg]": "Кодиращ модул за <name> файлове",
        "Description[bs]": "Modul kodiranja za kodiranje <naziv> datoteka",
        "Description[ca@valencia]": "Mòdul de codificació per a codificar fitxers <name>",
        "Description[ca]": "Mòdul de codificació per a codificar fitxers <name>",
        "Description[cs]": "Modul pro kompresi do souborů <name>",
        "Description[csb]": "Mòdul kòdërëjący lopczi <name>",
        "Description[da]": "Indkodningsmodul til <name>-filer",
        "Description[de]": "Kodierungsmodul zur Kodierung von <Name>-Dateien",
        "Description[el]": "Άρθρωμα κωδικοποίησης αρχείων <name>",
        "Description[en_GB]": "Encoding module to encode <name> files",
        "Description[es]": "Módulo de codificado para codificar archivos <name>",
        "Description[et]": "<nimi> failide kodeerimise moodul",
        "Description[eu]": "<name> fitxategiak kodetzeko modulua",
        "Description[fi]": "<name>-tiedostojen pakkausmoduuli",
        "Description[fr]": "Module d'encodage pour encoder les fichiers <nom>",
        "Description[ga]": "Modúl ionchódaithe a ionchódaíonn comhaid <name>",
        "Description[gl]": "Módulo de configuración para codificar ficheiros <name>",
        "Description[he]": "מודל קידוד לקבצי <name>",
        "Description[hne]": "<name> फाइल ल एनकोड करे बर एनकोडिंग माड्यूल",
        "Description[hr]": "Koderski modul za kodiranje <name> datoteka",
        "Description[hu]": "Kódolómodul <name>-fájlok készítéséhez",
        "Description[ia]": "Modulo decifrante per decifrar files <name>",
        "Description[id]": "Modul encoding untuk mengenkode file-file <name>",
        "Description[it]": "Codificatore modulare di file <name>",
        "Description[ja]": "<name> ファイルをエンコードするモジュール",
        "Description[kk]": "<name> файлдарының кодер модулі",
        "Description[km]": "ម៉ូឌុល​អ៊ិនកូដ សម្រាប់​អ៊ិនកូដ​ឯកសារ <name>",
        "Description[ko]": "<name> 파일 인코딩 모듈",
        "Description[lt]": "Kodavimo modulis koduoti <name> failus",
        "Description[lv]": "Kodēšanas modulis <name> failiem",
        "Description[mr]": "<name> फाईल्स एन्कोड करण्याकरिता एन्कोडिंग विभाग",
        "Description[nb]": "Modul som koder <name>-filer",
        "Description[nds]": "Kodeermoduul för <Naam>-Dateien",
        "Description[nl]": "Module voor het coderen van <name>-bestanden",
        "Description[nn]": "Modul for koding av <name>-filer",
        "Description[pl]": "Moduł kodujący pliki <name>",
        "Description[pt]": "Módulo de codificação de ficheiros <nome>",
        "Description[pt_BR]": "Módulo de codificação de arquivos <nome>",
        "Description[ro]": "Modul de codare pentru codarea fișierelor <name>",
        "Description[ru]": "Модуль перекодировки файлов <name>",
        "Description[sk]": "Modul pre kódovanie súborov <name>",
        "Description[sl]": "Kodirni modul za kodiranje datotek <name>",
        "Description[sr@ijekavian]": "Модул за кодирање <име> фајлова",
        "Description[sr@ijekavianlatin]": "Modul za kodiranje <ime> fajlova",
        "Description[sr@latin]": "Modul za kodiranje <ime> fajlova",
        "Description[sr]": "Модул за кодирање <име> фајлова",
        "Description[sv]": "Kodningsmodul för att koda <namn>-filer",
        "Description[th]": "มอดูลเข้ารหัสแฟ้มประเภท <name>",
        "Description[tr]": "<name> dosyalarını kodlamak için kodlayıcı modülü",
        "Description[uk]": "Модуль кодування файлів <name>",
        "Description[x-test]": "xxEncoding module to encode <name> filesxx",
        "Description[zh_CN]": "用于编码 <name> 文件的编码模块",
        "Description[zh_TW]": "編碼 <名稱> 檔案的模組",
        "Id": "k3b<name>encoder",
        "License": "???",
        "Name": "K3b ??? Encoder",
        "Name[bg]": "Кодиране на ??? (K3b)",
        "Name[bs]": "K3b ??? koder",
        "Name[ca@valencia]": "Codificador ??? del K3b",
        "Name[ca]": "Codificador ??? del K3b",
        "Name[cs]": "K3b ??? enkodér",
        "Name[csb]": "Kòder ??? dlô K3b",
        "Name[da]": "K3b ???-indkodning",
        "Name[de]": "???-Kodierer",
        "Name[el]": "Κωδικοποιητής ??? του K3b",
        "Name[en_GB]": "K3b ??? Encoder",
        "Name[es]": "Codificador ??? de K3b",
        "Name[et]": "K3b ??? kodeerija",
        "Name[eu]": "K3b ??? kodetzailea",
        "Name[fi]": "K3b:n ???-pakkaaja",
        "Name[fr]": "Encodeur ??? pour K3b",
        "Name[ga]": "Ionchódóir ??? K3b",
        "Name[gl]": "Codificador ??? para K3b",
        "Name[he]": "מקודד ??? של K3b",
        "Name[hne]": "के३बी ??? एनकोडर",
        "Name[hr]": "K3b-ov koder ???",
        "Name[hu]": "???-kódoló a K3b-hez",
        "Name[ia]": "Codificator ??? de K3b",
        "Name[id]": "Enkoder ??? K3b",
        "Name[is]": "K3b ??? kóðari",
        "Name[it]": "Codificatore ??? di K3b",
        "Name[ja]": "K3b ??? エンコーダ",
        "Name[kk]": "K3b ??? кодері",
        "Name[km]": "អ៊ិនកូឌ័រ​ ??? របស់ K3b",
        "Name[ko]": "K3b ??? 인코더",
        "Name[lt]": "K3b ??? koduotuvas",
        "Name[lv]": "K3b ??? kodētājs",
        "Name[mr]": "केबी ??? एन्कोडर",
        "Name[nb]": "K3b ??? koder",
        "Name[nds]": "???-Koderer för K3b",
        "Name[nl]": "K3b ???-codeerder",
        "Name[nn]": "???-kodar for K3b",
        "Name[pa]": "K3b ???  ਇੰਕੋਡਰ",
        "Name[pl]": "Koder ??? dla K3b",
        "Name[pt]": "Codificador ??? do K3b",
        "Name[pt_BR]": "Codificador ??? do K3b",
        "Name[ro]": "Codor K3b ???",
        "Name[ru]": "Кодер ???",
        "Name[sk]": "K3b ??? enkodér",
        "Name[sl]": "K3b-jev kodirnik ???",
        "Name[sq]": "K3b ??? Enkoder",
        "Name[sr@ijekavian]": "??? кодер за К3б",
        "Name[sr@ijekavianlatin]": "??? koder za K3b",
        "Name[sr@latin]": "??? koder za K3b",
        "Name[sr]": "??? кодер за К3б",
        "Name[sv]": "K3b ???-kodare",
        "Name[th]": "K3b - ตัวเข้ารหัส ???",
        "Name[tr]": "K3b ??? Şifreleyicisi",
        "Name[uk]": "Кодувальник ??? для K3b",
        "Name[x-test]": "xxK3b ??? Encoderxx",
        "Name[zh_CN]": "K3b ??? 编码器",
        "Name[zh_TW]": "K3b ??? 編碼器",
        "Version": "???"
    }
}
