{
    "KPlugin": {
        "Authors": [
            {
                "Email": "trueg@k3b.org",
                "Name": "Sebastian Trueg",
                "Name[ca@valencia]": "Sebastian Trueg",
                "Name[ca]": "Sebastian Trueg",
                "Name[cs]": "Sebastian Trueg",
                "Name[de]": "Sebastian Trueg",
                "Name[el]": "Sebastian Trueg",
                "Name[en_GB]": "Sebastian Trueg",
                "Name[es]": "Sebastian Trueg",
                "Name[eu]": "Sebastian Trueg",
                "Name[fi]": "Sebastian Trueg",
                "Name[fr]": "Sebastian Trueg",
                "Name[ia]": "Sebastian Trueg",
                "Name[it]": "Sebastian Trueg",
                "Name[ko]": "Sebastian Trueg",
                "Name[nl]": "Sebastian Trueg",
                "Name[pl]": "Sebastian Trueg",
                "Name[pt]": "Sebastian Trueg",
                "Name[pt_BR]": "Sebastian Trueg",
                "Name[sl]": "Sebastian Trueg",
                "Name[sv]": "Sebastian Trueg",
                "Name[uk]": "Sebastian Trueg",
                "Name[x-test]": "xxSebastian Truegxx",
                "Name[zh_CN]": "Sebastian Trueg"
            }
        ],
        "Category": "AudioEncoder",
        "Description": "Encoding module to encode many file formats using SoX",
        "Description[bg]": "Кодиращ модул за множество файлови формати с SoX",
        "Description[bs]": "Modul za kodiranje mnogih formata Soksom",
        "Description[ca@valencia]": "Mòdul de codificació per a codificar molts formats de fitxers usant SoX",
        "Description[ca]": "Mòdul de codificació per a codificar molts formats de fitxers usant SoX",
        "Description[cs]": "Modul pro kompresi do mnoha formátů pomocí SoX",
        "Description[csb]": "Mòdul kòdërëjący wiele fòrmôtów z pòmòcą SoX",
        "Description[da]": "Indkodningsmodul til mange filformater med brug af SoX",
        "Description[de]": "Kodierungsmodul zur Kodierung von vielen Audioformaten mittels SoX",
        "Description[el]": "Άρθρωμα κωδικοποίησης αρχείων ήχου SoX",
        "Description[en_GB]": "Encoding module to encode many file formats using SoX",
        "Description[es]": "Módulo de codificado para codificar multitud de formatos usando SoX",
        "Description[et]": "Kodeerimise moodul paljudes failivormingutes kodeerimiseks SoX-i abil",
        "Description[eu]": "SoX erabiliz formatu ugaritara kodetzeko modulua",
        "Description[fi]": "Moduuli useiden tiedostomuotojen pakkaukseen SoXilla",
        "Description[fr]": "Module d'encodage pour encoder de nombreux formats de fichiers utilisant « SoX »",
        "Description[ga]": "Modúl ionchódaithe a ionchódaíonn a lán formáidí comhaid le SoX",
        "Description[gl]": "Módulo de configuración para codificar varios formatos de ficheiro mediante SoX",
        "Description[he]": "מודול קידוד על מנת לקודד הרבה סוגי קבצים בעזרת SoX",
        "Description[hr]": "Koderski modul za kodiranje mnogih datotečnih formata pomoću SoX-a",
        "Description[hu]": "Kódolómodul sokféle fájlformátumba való kódoláshoz (a SoX használatával)",
        "Description[ia]": "Modulo decifrante per decifrar multe formatos de files usante SoX",
        "Description[id]": "Modul encoding untuk mengenkode banyak format file menggunakan SoX",
        "Description[it]": "Codifica modulare per i molti formati di file che usano SoX",
        "Description[ja]": "SoX を使ってさまざまなファイルフォーマットをエンコードするモジュール",
        "Description[kk]": "SoX-ты қолданып көп пішіміндегі файлдарының кодер модулі",
        "Description[km]": "ម៉ូឌុល​អ៊ិនកូដ សម្រាប់​​អ៊ិនកូដ​ទ្រង់ទ្រាយ​ឯកសារ​ច្រើន​ដោយ​ប្រើ SoX",
        "Description[ko]": "SoX를 사용하여 많은 파일을 인코딩하는 모듈",
        "Description[lt]": "Kodavimo modulis koduoti daugelį failų naudojant SoX",
        "Description[lv]": "Kodēšanas modulis failiem, kuri tiek atbalstīti ar SoX",
        "Description[mr]": "SoX वापरून विविध फाईल प्रकार एन्कोड करण्याकरिता एन्कोडिंग विभाग",
        "Description[nb]": "Modul som koder mange filformater ved bruk av SoXs",
        "Description[nds]": "Kodeermoduul för vele Dateiformaten, de SoX bruukt",
        "Description[nl]": "Module voor het coderen van veel bestandsformaten met behulp van SoX",
        "Description[nn]": "Modul for koding av mange filformat ved hjelpa av SoX",
        "Description[pl]": "Moduł kodujący wiele formatów za pomocą SoX",
        "Description[pt]": "Módulo de codificação de vários formatos de ficheiros com o SoX",
        "Description[pt_BR]": "Módulo de codificação de vários formatos de arquivo usando o SoX",
        "Description[ro]": "Modul de codare pentru codarea multor formate de fișier utilizînd SoX",
        "Description[ru]": "Модуль перекодировки множества форматов файлов с использованием SoX",
        "Description[sk]": "Modul pre kódovanie veľa formátov súborov pomocou SoX",
        "Description[sl]": "Kodirni modul za kodiranje mnogih formatov datotek z uporabo SoX",
        "Description[sr@ijekavian]": "Модул за кодирање многих формата Соксом",
        "Description[sr@ijekavianlatin]": "Modul za kodiranje mnogih formata SoXom",
        "Description[sr@latin]": "Modul za kodiranje mnogih formata SoXom",
        "Description[sr]": "Модул за кодирање многих формата Соксом",
        "Description[sv]": "Kodningsmodul för att koda många filformat med användning av SoX",
        "Description[th]": "มอดูลเข้ารหัสแฟ้มหลายรูปแบบโดยใช้ SoX",
        "Description[tr]": "SoX'u kullanarak pek çok dosya kipini şifrelemek için şifreleme modülü",
        "Description[uk]": "Модуль кодування багатьох форматів файлів за допомогою SoX",
        "Description[x-test]": "xxEncoding module to encode many file formats using SoXxx",
        "Description[zh_CN]": "用于编码很多使用 SoX 格式的文件的编码模块",
        "Description[zh_TW]": "編碼許多 SoX 支援的檔案格式的模組",
        "EnabledByDefault": true,
        "Icon": "preferences-plugin",
        "Id": "k3bsoxencoder",
        "License": "GPL",
        "Name": "K3b SoX Audio Encoder",
        "Name[bg]": "Кодиране на SoX Audio (K3b)",
        "Name[bs]": "Sox audio koder za K3b",
        "Name[ca@valencia]": "Codificador d'àudio SoX del K3b",
        "Name[ca]": "Codificador d'àudio SoX del K3b",
        "Name[cs]": "K3b SoX audio enkodér",
        "Name[csb]": "Kòder SoX Audio dlô K3b",
        "Name[da]": "K3b SoX-lydindkodning",
        "Name[de]": "SoX-Audio-Kodierer",
        "Name[el]": "Αποκωδικοποιητής ήχου SoX του K3b",
        "Name[en_GB]": "K3b SoX Audio Encoder",
        "Name[es]": "Codificador de audio SoX de K3b",
        "Name[et]": "K3b SoX helifailide kodeerija",
        "Name[eu]": "K3b SoX audio kodetzailea",
        "Name[fi]": "K3b:n SoX-pakkaaja",
        "Name[fr]": "Encodeur audio « SoX » pour K3b",
        "Name[ga]": "Ionchódóir SoX K3b",
        "Name[gl]": "Codificador de son SoX para K3b",
        "Name[he]": "מקודד קבצי שמע SoX של K3b",
        "Name[hne]": "के३बी साक्स आडियो एनकोडर",
        "Name[hr]": "K3b-ov koder SoX audija",
        "Name[hu]": "SoX-hangkódoló a K3b-hez",
        "Name[ia]": "Codificator Audio SoX de K3b",
        "Name[id]": "Enkoder Audio SoX K3b",
        "Name[is]": "K3b SoX hljóðkóðari",
        "Name[it]": "Codificatore audio SoX di K3b",
        "Name[ja]": "K3b SoX オーディオエンコーダ",
        "Name[kk]": "K3b SoX дыбыс кодері",
        "Name[km]": "អ៊ិនកូឌ័រ​អូឌីយ៉ូ SoX របស់ K3b",
        "Name[ko]": "K3b SoX 오디오 인코더",
        "Name[lt]": "K3b SoX audio koduotuvas",
        "Name[lv]": "K3b SoX Audio kodētājs",
        "Name[mr]": "के3बी SoX ऑडिओ एन्कोडर",
        "Name[nb]": "K3b SoX lydkoder",
        "Name[nds]": "\"SoX Audio\"-Dekoderer för K3b",
        "Name[nl]": "K3b SoX Audio-codeerder",
        "Name[nn]": "SoX-lydkodar for K3b",
        "Name[pa]": "K3b SoX ਆਡੀਓ ਇੰਕੋਡਰ",
        "Name[pl]": "Koder SoX Audio dla K3b",
        "Name[pt]": "Codificador de Áudio SOX do K3b",
        "Name[pt_BR]": "Codificador de áudio SoX do K3b",
        "Name[ro]": "Codor K3b Sox Audio",
        "Name[ru]": "Кодер SoX Audio",
        "Name[sk]": "SoX zvukový enkodér pre K3b",
        "Name[sl]": "K3b-jev zvočni kodirnik SoX",
        "Name[sq]": "K3b SoX Audio Enkoder",
        "Name[sr@ijekavian]": "Соксов аудио кодер за К3б",
        "Name[sr@ijekavianlatin]": "SoXov audio koder za K3b",
        "Name[sr@latin]": "SoXov audio koder za K3b",
        "Name[sr]": "Соксов аудио кодер за К3б",
        "Name[sv]": "K3b SoX-ljudkodare",
        "Name[th]": "K3b - ตัวเข้ารหัสเสียง SoX",
        "Name[tr]": "K3b SoX Audio Şifreleyicisi",
        "Name[uk]": "Кодувальник звуку SoX для K3b",
        "Name[x-test]": "xxK3b SoX Audio Encoderxx",
        "Name[zh_CN]": "K3b SoX 音频编码器",
        "Name[zh_TW]": "K3b SoX 音效編碼器",
        "Version": "3.0"
    }
}
